<svg width="484" height="670" viewBox="0 0 484 670" fill="none" xmlns="http://www.w3.org/2000/svg">
<path d="M-18.046 4.20312C5.22205 130.662 34.2267 213.927 68.9681 254C121.081 314.11 196.633 331.072 259.408 402.651C301.257 450.37 321.247 538.23 319.376 666.231" stroke="url(#paint0_linear)" stroke-width="7" stroke-miterlimit="3" stroke-linecap="square"/>
<path d="M-191 107.264C-113.979 212.799 -50.843 276.842 -1.59103 299.392C72.287 333.218 148.369 318.544 236.995 358.538C296.079 385.201 353.063 457.003 407.946 573.944" stroke="url(#paint1_linear)" stroke-width="7" stroke-miterlimit="3" stroke-linecap="square"/>
<path d="M-88.4669 102.695C-18.5049 212.567 40.3161 280.209 87.9961 305.619C159.516 343.734 236.412 333.575 322.248 378.716C379.473 408.811 431.645 483.833 478.764 603.784" stroke="url(#paint2_linear)" stroke-width="7" stroke-miterlimit="3" stroke-linecap="square"/>
<defs>
<linearGradient id="paint0_linear" x1="-18.046" y1="335.217" x2="319.496" y2="335.217" gradientUnits="userSpaceOnUse">
<stop offset="0.0130435" stop-color="#F0D620" stop-opacity="0.2"/>
<stop offset="0.486957" stop-color="#F0D620"/>
<stop offset="0.982609" stop-color="#F0D620" stop-opacity="0.2"/>
</linearGradient>
<linearGradient id="paint1_linear" x1="-191" y1="340.604" x2="407.946" y2="340.604" gradientUnits="userSpaceOnUse">
<stop offset="0.0130435" stop-color="#F0D620" stop-opacity="0.2"/>
<stop offset="0.486957" stop-color="#F0D620"/>
<stop offset="0.982609" stop-color="#F0D620" stop-opacity="0.2"/>
</linearGradient>
<linearGradient id="paint2_linear" x1="-88.4669" y1="353.239" x2="478.764" y2="353.239" gradientUnits="userSpaceOnUse">
<stop offset="0.0130435" stop-color="#F0D620" stop-opacity="0.2"/>
<stop offset="0.486957" stop-color="#F0D620"/>
<stop offset="0.982609" stop-color="#F0D620" stop-opacity="0.2"/>
</linearGradient>
</defs>
</svg>
