<svg width="38" height="38" viewBox="0 0 38 38" fill="none" xmlns="http://www.w3.org/2000/svg">
<circle cx="19" cy="19" r="19" fill="white"/>
<path d="M19 19.316C19.9338 19.316 20.7876 19.0892 21.5613 18.6357C22.3617 18.1821 22.9887 17.5684 23.4423 16.7947C23.8959 15.9943 24.1227 15.1272 24.1227 14.1934C24.1227 13.2595 23.8959 12.4058 23.4423 11.632C22.9887 10.8316 22.3617 10.2046 21.5613 9.75105C20.7876 9.29748 19.9338 9.07069 19 9.07069C18.0662 9.07069 17.1991 9.29748 16.3986 9.75105C15.6249 10.2046 15.0113 10.8316 14.5577 11.632C14.1041 12.4058 13.8773 13.2595 13.8773 14.1934C13.8773 15.1272 14.1041 15.9943 14.5577 16.7947C15.0113 17.5684 15.6249 18.1821 16.3986 18.6357C17.1991 19.0892 18.0662 19.316 19 19.316ZM22.6019 20.5967H21.9215C20.9877 21.0236 20.0139 21.237 19 21.237C17.9861 21.237 17.0123 21.0236 16.0785 20.5967H15.3981C14.4376 20.5967 13.5438 20.8368 12.7167 21.3171C11.8896 21.7973 11.236 22.451 10.7557 23.2781C10.2755 24.1052 10.0353 24.999 10.0353 25.9595V27.6403C10.0353 28.1739 10.2221 28.6275 10.5956 29.001C10.9692 29.3746 11.4227 29.5613 11.9563 29.5613H26.0437C26.5773 29.5613 27.0308 29.3746 27.4044 29.001C27.7779 28.6275 27.9647 28.1739 27.9647 27.6403V25.9595C27.9647 24.999 27.7245 24.1052 27.2443 23.2781C26.764 22.451 26.1104 21.7973 25.2833 21.3171C24.4562 20.8368 23.5624 20.5967 22.6019 20.5967Z" fill="#006F88"/>
</svg>
