<svg width="46" height="45" viewBox="0 0 46 45" fill="none" xmlns="http://www.w3.org/2000/svg">
<circle cx="23" cy="22.5" r="22.5" fill="#F1F3F6"/>
<path d="M25.6841 19.6094V23.577C25.6841 23.6775 25.606 23.7556 25.5056 23.7556H24.8694C24.808 23.7556 24.7522 23.7221 24.7243 23.683L22.9051 21.2277V23.5826C22.9051 23.683 22.827 23.7612 22.7266 23.7612H22.0904C21.99 23.7612 21.9118 23.683 21.9118 23.5826V19.615C21.9118 19.5145 21.99 19.4364 22.0904 19.4364H22.721C22.7768 19.4364 22.8382 19.4643 22.8661 19.5145L24.6853 21.9699V19.615C24.6853 19.5145 24.7634 19.4364 24.8638 19.4364H25.5C25.6004 19.4308 25.6841 19.5145 25.6841 19.6094ZM21.1083 19.4308H20.4721C20.3717 19.4308 20.2935 19.5089 20.2935 19.6094V23.577C20.2935 23.6775 20.3717 23.7556 20.4721 23.7556H21.1083C21.2087 23.7556 21.2868 23.6775 21.2868 23.577V19.6094C21.2868 19.5145 21.2087 19.4308 21.1083 19.4308ZM19.5737 22.7567H17.8382V19.6094C17.8382 19.5089 17.76 19.4308 17.6596 19.4308H17.0234C16.923 19.4308 16.8449 19.5089 16.8449 19.6094V23.577C16.8449 23.6272 16.8616 23.6663 16.8951 23.6998C16.9286 23.7277 16.9676 23.75 17.0179 23.75H19.5681C19.6685 23.75 19.7467 23.6719 19.7467 23.5714V22.9353C19.7467 22.8404 19.6685 22.7567 19.5737 22.7567ZM29.0324 19.4308H26.4821C26.3873 19.4308 26.3036 19.5089 26.3036 19.6094V23.577C26.3036 23.6719 26.3817 23.7556 26.4821 23.7556H29.0324C29.1328 23.7556 29.2109 23.6775 29.2109 23.577V22.9408C29.2109 22.8404 29.1328 22.7623 29.0324 22.7623H27.2969V22.0926H29.0324C29.1328 22.0926 29.2109 22.0145 29.2109 21.9141V21.2723C29.2109 21.1719 29.1328 21.0938 29.0324 21.0938H27.2969V20.4241H29.0324C29.1328 20.4241 29.2109 20.346 29.2109 20.2455V19.6094C29.2053 19.5145 29.1272 19.4308 29.0324 19.4308ZM35.5 14.5592V30.4799C35.4944 32.9799 33.4464 35.0056 30.9408 35H15.0201C12.5201 34.9944 10.4944 32.9408 10.5 30.4408V14.5201C10.5056 12.0201 12.5592 9.99443 15.0592 10H30.9799C33.4799 10.0056 35.5056 12.0536 35.5 14.5592ZM32.0625 21.4007C32.0625 17.327 27.9777 14.0123 22.9609 14.0123C17.9442 14.0123 13.8594 17.327 13.8594 21.4007C13.8594 25.0502 17.096 28.1083 21.471 28.6886C22.5368 28.9174 22.4141 29.308 22.1741 30.7422C22.135 30.971 21.99 31.6406 22.9609 31.2333C23.9319 30.8259 28.2009 28.1473 30.1149 25.9487C31.4319 24.4978 32.0625 23.0301 32.0625 21.4007Z" fill="#006F88"/>
</svg>
